{
  "profiles": {
    "Otus.Teaching.Pcf.GivingToCustomer.Core": {
      "commandName": "Project",
      "launchBrowser": true,
      "environmentVariables": {
        "ASPNETCORE_ENVIRONMENT": "Development"
      },
      "applicationUrl": "https://localhost:55118;http://localhost:55120"
    }
  }
}