{
  "profiles": {
    "Otus.Teaching.Pcf.ReceivingFromPartner.UnitTests": {
      "commandName": "Project",
      "launchBrowser": true,
      "environmentVariables": {
        "ASPNETCORE_ENVIRONMENT": "Development"
      },
      "applicationUrl": "https://localhost:55107;http://localhost:55113"
    }
  }
}