{
  "profiles": {
    "Otus.Teaching.Pcf.GivingToCustomer.DataAccess": {
      "commandName": "Project",
      "launchBrowser": true,
      "environmentVariables": {
        "ASPNETCORE_ENVIRONMENT": "Development"
      },
      "applicationUrl": "https://localhost:55112;http://localhost:55114"
    }
  }
}