﻿{
  "profiles": {
    "Otus.Teaching.Pcf.DictionaryService.WebHost": {
      "commandName": "Project",
      "launchUrl": "swagger",
      "launchBrowser": true,
      "applicationUrl": "http://localhost:8094",
      "environmentVariables": {
        "ASPNETCORE_ENVIRONMENT": "Development"
      }
    }
  }
}
